{
	"name": "Outback",
	"authors": ["Rockymine"],
	"version": "1.2.3",
	"gametype": "CTW",

	"teams": [
		{
			"id": "blue",
			"name": "Blue",
			"color": "blue",
			"max": 50,
			"min": 1
		},
		{
			"id": "red",
			"name": "Red",
			"color": "red",
			"max": 50,
			"min": 1
		}
	],

	"spawns": [
		{ "teams": ["spectators"], "coords": "0.5, 50, 0.5, 90" },
		{ "teams": ["red"], "coords": "0.5, 9, -76.5, 0" },
		{ "teams": ["blue"], "coords": "0.5, 9, 77.5, 180" }
	],

	"ctw": {
		"wools": [
			{
				"name": "Magenta",
				"color": "magenta",
				"teams": ["blue"],
				"region": {"min": "-5, 10, 78", "max": "-5, 10, 78"}
			},
			{
				"name": "Pink",
				"color": "pink",
				"teams": ["blue"],
				"region": {"min": "5, 10, 78", "max": "5, 10, 78"}
			},
			{
				"name": "Light Blue",
				"color": "light blue",
				"teams": ["red"],
				"region": {"min": "5, 10, -78", "max": "5, 10, -78"}
			},
			{
				"name": "Blue",
				"color": "blue",
				"teams": ["red"],
				"region": {"min": "-5, 10, -78", "max": "-5, 10, -78"}
			}
		]
	},
	"killstreaks": [{
		"count": 1,
		"repeat": true,
		"commands": ["give %killername% minecraft:golden_apple 1"]
	                 }
               ],
	"kits": [
		{
			"name": "Default",
			"items": [
				{"type": "item", "material": "iron sword", "slot": 0, "unbreakable": true},
				{"type": "item", "material": "bow", "slot": 1, "unbreakable": true},
				{"type": "item", "material": "diamond pickaxe", "slot": 2, "unbreakable": true},
				{"type": "item", "material": "iron axe", "slot": 3, "unbreakable": true},
				{"type": "item", "material": "glass", "slot": 5, "amount": 64},
				{"type": "item", "material": "wood", "slot": 6, "amount": 64},
				{"type": "item", "material": "cooked beef", "slot": 8, "amount": 64},
				{"type": "item", "material": "arrow", "slot": 28, "amount": 64},

				{"type": "item", "material": "leather helmet", "slot": "helmet", "unbreakable": true},
				{"type": "item", "material": "chainmail chestplate", "slot": "chestplate", "enchantments": ["blast_protection:1"], "unbreakable": true},
				{"type": "item", "material": "leather leggings", "slot": "leggings", "unbreakable": true},
				{"type": "item", "material": "iron boots", "slot": "boots", "unbreakable": true}
			]
		}
	],

	"itemremove": [
		"iron sword", "bow", "diamond pickaxe", "iron axe", "leather helmet",
		"glass", "wood", "cooked beef", "arrow",
		"leather helmet", "chainmail chestplate", "leather leggings", "iron boots",
		"beacon", "string"
	],

	"filters": [
		{
			"type": "build", "evaluate": "deny", "teams": ["blue"],
			"regions": ["red-spawn-protection", "blue-spawn-protection", "light-blue-room", "blue-room"],
			"message": "&cYou are not allowed to modify terrain here."
		},
		{
			"type": "build", "evaluate": "deny", "teams": ["red"],
			"regions": ["blue-spawn-protection", "red-spawn-protection", "magenta-room", "pink-room"],
			"message": "&cYou are not allowed to modify terrain here."
		},

		{ "type": "enter", "evaluate": "deny", "teams": ["red"], "regions": ["blue-spawn-protection", "magenta-room", "pink-room"], "message": "&cYou may not enter this region." },
		{ "type": "enter", "evaluate": "deny", "teams": ["blue"], "regions": ["red-spawn-protection", "light-blue-room", "blue-room"], "message": "&cYou may not enter this region." }
	],

	"regions": [
		{"id": "light-blue-room", "min": "-44, 10, 116", "max": "-26, 38, 138"},
		{"id": "blue-room", "min": "27, 10, 116", "max": "47, 38, 139"},

		{"id": "magenta-room", "min": "27, 10, -115", "max": "46, 38, -140"},
		{"id": "pink-room", "min": "-25, 10, -115", "max": "-46, 28, -139"},

		{"id": "blue-spawn-protection", "type": "cuboid", "min": "-11, 0, 104", "max": "11, 17, 73"},
		{"id": "red-spawn-protection", "type": "cuboid", "min": "11, 0, -104", "max": "-11, 17, -73"}
	]
}
