{
	"name": "Mayan Apocalypse",
	"authors": ["Mikeg542"],
	"version": "1.0.6",
	"gametype": "DTM",
	"teams": [
		{
			"id": "blue",
			"name": "Blue",
			"color": "blue",
			"max": 50,
			"min": 1
		},
		{
			"id": "red",
			"name": "Red",
			"color": "red",
			"max": 50,
			"min": 1
		}
	],
	"spawns": [
		{ "teams": ["spectators"], "coords": "-6.9, 52, 120.7, 180" },
		{ "teams": ["red"], "coords": "-123, 25, 4.9, 0" },
		{ "teams": ["blue"], "coords": "108, 25, 76, 180" }
	],
	"dtm": {
		"monuments": [
			{
				"name": "Red Wool",
				"teams": ["red"],
				"materials": ["wool"],
				"region": {
					"min": "-127, 22, 71",
					"max": "-124, 27, 68"
				},
				"health": 10
			},
			{
				"name": "Blue Wool",
				"teams": ["blue"],
				"materials": ["wool"],
				"region": {
					"min": "111, 21, 9",
					"max": "108, 27, 12"
				},
				"health": 10
			}
		]
	},
"killstreaks": [{
                 "count": 1,
                 "repeat": true,
                 "commands": ["give %killername% minecraft:golden_apple 1"]
               },
               {
                 "count": 5,
		 "repeat": true,
		 "commands": ["execute %killername% ~ ~ ~ playsound entity.zombie.death master @a ~ ~ ~ 3",
                             "give %killername% minecraft:arrow 4"
                           ]
                     }
            ],
	"kits": [
		{
			"name": "Default",
			"items": [
				{"type": "item", "material": "iron sword", "slot": 0, "unbreakable": true},
				{"type": "item", "material": "bow", "slot": 1, "unbreakable": true},
				{"type": "item", "material": "diamond pickaxe", "slot": 2, "unbreakable": true},
				{"type": "item", "material": "iron axe", "slot": 3, "unbreakable": true},
				{"type": "item", "material": "log", "slot": 4, "amount": 64},
				{"type": "item", "material": "golden Apple", "slot": 7, "amount": 1},
				{"type": "item", "material": "cooked beef", "slot": 8, "amount": 64},
				{"type": "item", "material": "arrow", "slot": 9, "amount": 64},

				{"type": "item", "material": "iron helmet", "slot": "helmet", "unbreakable": true},
				{"type": "item", "material": "leather chestplate", "slot": "chestplate", "unbreakable": true},
				{"type": "item", "material": "leather leggings", "slot": "leggings", "unbreakable": true},
				{"type": "item", "material": "iron boots", "slot": "boots", "unbreakable": true}
			]
		}
	],
	"itemremove": [
		"iron helmet", "leather chestplate", "leather leggings", "iron boots", "wool"
	],
	"filters": [
		{
			"type": "build", "evaluate": "deny", "teams": ["blue", "red"],
			"regions": ["blue-spawn-protection", "red-spawn-protection"],
			"message": "&cYou are not allowed to modify terrain here."
		},
		{ "type": "enter", "evaluate": "deny", "teams": ["blue"], "regions": ["red-spawn-protection"], "message": "&cYou may not enter the enemy spawn." },
		{ "type": "enter", "evaluate": "deny", "teams": ["red"], "regions": ["blue-spawn-protection"], "message": "&cYou may not enter the enemy spawn." }
	],
	"regions": [
		{ "id": "blue-spawn-protection", "type": "cuboid", "min": "96, 17, 80", "max": "125, 34, 64"},

		{ "id": "red-spawn-protection", "type": "cuboid", "min": "-112, 17, 0", "max": "-140, 34, 16" }
	]
}
