{
	"name": "Terrace",
	"authors": ["ItzLany"],
	"version": "1.2.3",
	"gametype": "DTM",
	"teams": [
		{
			"id": "blue",
			"name": "Blue",
			"color": "blue",
			"max": 50,
			"min": 1
		},
		{
			"id": "red",
			"name": "Red",
			"color": "red",
			"max": 50,
			"min": 1
		}
	],
	"spawns": [
		{ "teams": ["spectators"], "coords": "-175.5, 53, 127.5, -90" },
		{ "teams": ["red"], "coords": "-94.5, 4, 55.5, 0" },
		{ "teams": ["blue"], "coords": "-94.5, 4, 199.5, 180" }
	],
	"dtm": {
		"monuments": [
			{
				"name": "Red Wool",
				"teams": ["red"],
				"materials": ["wool"],
				"region": {
					"min": "-40, 5, 55",
					"max": "-38, 10, 57"
				},
				"health": 10
			},
			{
				"name": "Blue Wool",
				"teams": ["blue"],
				"materials": ["wool"],
				"region": {
					"min": "-150, 5, 199",
					"max": "-152, 10, 197"
				},
				"health": 10
			}
		]
	},
	"killstreaks": [{
		"count": 1,
		"repeat": true,
		"commands": ["give %killername% minecraft:golden_apple 1",
			"give %killername% minecraft:arrow 3"
		]
	}],
	"kits": [
		{
			"name": "Default",
			"items": [
				{"type": "item", "material": "iron sword", "slot": 0, "unbreakable": true},
				{"type": "item", "material": "bow", "slot": 1, "unbreakable": true},
				{"type": "item", "material": "stone axe", "slot": 2, "unbreakable": true},
				{"type": "item", "material": "wood", "slot": 3, "amount": 64},
				{"type": "item", "material": "wood", "slot": 4, "amount": 64},
				{"type": "item", "material": "cooked beef", "slot": 8, "amount": 64},
				{"type": "item", "material": "arrow", "slot": 9, "amount": 32},

				{"type": "item", "material": "leather helmet", "slot": "helmet", "unbreakable": true},
				{"type": "item", "material": "chainmail chestplate", "slot": "chestplate", "unbreakable": true},
				{"type": "item", "material": "leather leggings", "slot": "leggings", "unbreakable": true},
				{"type": "item", "material": "iron boots", "slot": "boots", "unbreakable": true}
			]
		}
	],
	"itemremove": [
		"leather helmet", "chainmail chestplate", "leather leggings", "iron boots", "wool"
	],
	"filters": [
		{
			"type": "build", "evaluate": "deny", "teams": ["blue", "red"],
			"regions": ["blue-spawn-protection", "red-spawn-protection"],
			"message": "&cYou are not allowed to modify terrain here."
		},
		{ "type": "enter", "evaluate": "deny", "teams": ["blue"], "regions": ["red-spawn-protection"], "message": "&cYou may not enter the enemy spawn." },
		{ "type": "enter", "evaluate": "deny", "teams": ["red"], "regions": ["blue-spawn-protection"], "message": "&cYou may not enter the enemy spawn." }
	],
	"regions": [
		{ "id": "blue-spawn-protection", "type": "cuboid", "min": "-92, 3, 196", "max": "-98, 23, 202" },

		{ "id": "red-spawn-protection", "type": "cuboid", "min": "-98, 3, 58", "max": "-92, 23, 52" }
	]
}
