{
	"name": "Gardens",
	"authors": ["_Rascal", "HesAlrightIGuess", "Pndq"],
	"version": "1.0.0",
	"gametype": "DTM",
	"teams": [
		{
			"id": "blue",
			"name": "Blue",
			"color": "blue",
			"max": 50,
			"min": 1
		},
		{
			"id": "red",
			"name": "Red",
			"color": "red",
			"max": 50,
			"min": 1
		}
	],
	"spawns": [
		{"teams": ["spectators"], "coords": "125.5, 119, 122.5, 90"},
		{"teams": ["red"], "coords": "67.5, 83, 37.5"},
		{"teams": ["blue"], "coords": "69.5, 83, 207.5, 180"}
	],
	"dtm": {
		"monuments": [
			{
				"name": "Red Wool",
				"teams": ["red"],
				"materials": ["wool"],
				"region": {
					"min": "17, 81, 46",
					"max": "117, 87, 44"
				},
				"health": 10
			},
			{
				"name": "Blue Wool",
				"teams": ["blue"],
				"materials": ["wool"],
				"region": {
					"min": "19, 87, 200",
					"max": "119, 81, 198"
				},
				"health": 10
			}
		]
	},
            "killstreaks": [{
                 "count": 1,
                 "repeat": true,
                 "commands": ["give %killername% minecraft:golden_apple 1"]
               },
               {
                 "count": 5,
		 "repeat": true,
		 "commands": ["execute %killername% ~ ~ ~ playsound entity.zombie.death master @a ~ ~ ~ 3",
                             "give %killername% minecraft:arrow 10"
                           ]
                     }
            ],
	"kits": [
		{
			"name": "Default",
			"items": [
				{"type": "item", "material": "iron sword", "slot": 0, "unbreakable": true},
				{"type": "item", "material": "bow", "slot": 1, "unbreakable": true},
				{"type": "item", "material": "stone axe", "slot": 2, "unbreakable": true},
				{"type": "item", "material": "wood", "slot": 3, "amount": 64},
				{"type": "item", "material": "wood", "slot": 4, "amount": 64},
				{"type": "item", "material": "cooked beef", "slot": 8, "amount": 64},
				{"type": "item", "material": "arrow", "slot": 9, "amount": 24},

				{"type": "item", "material": "leather helmet", "slot": "helmet", "unbreakable": true},
				{"type": "item", "material": "leather chestplate", "slot": "chestplate", "unbreakable": true},
				{"type": "item", "material": "chainmail leggings", "slot": "leggings", "unbreakable": true},
				{"type": "item", "material": "iron boots", "slot": "boots", "unbreakable": true}
			]
		}
	],
	"itemremove": [
		"leather helmet", "leather chestplate", "chainmail leggings", "iron boots", "wool"
	],
	"filters": [
		{
			"type": "build", "evaluate": "deny", "teams": ["blue", "red"],
			"regions": ["blue-spawn-protection", "red-spawn-protection"],
			"message": "&cYou are not allowed to modify terrain here."
		},
		{"type": "enter", "evaluate": "deny", "teams": ["blue"], "regions": ["red-spawn-protection"], "message": "&cYou may not enter the enemy spawn."},
		{"type": "enter", "evaluate": "deny", "teams": ["red"], "regions": ["blue-spawn-protection"], "message": "&cYou may not enter the enemy spawn."}
	],
	"regions": [
		{"id": "blue-spawn-protection", "type": "cuboid", "min": "59, 0, 209", "max": "79, oo, 197"},
		{"id": "red-spawn-protection", "type": "cuboid", "min": "57, 0, 47", "max": "77, oo, 35"}
	]
}
