{
	"name": "Twin Peaks",
	"authors": ["Scoolins"],
	"version": "2.0",
	"gametype": "DTM",
	"teams": [
		{
			"id": "blue",
			"name": "Blue",
			"color": "blue",
			"max": 50,
			"min": 1
		},
		{
			"id": "red",
			"name": "Red",
			"color": "red",
			"max": 50,
			"min": 1
		}
	],
	"spawns": [
		{ "teams": ["spectators"], "coords": "96.5, 89, -40.5, 180" },
		{ "teams": ["red"], "coords": "5.5, 68, -128.5, -90" },
		{ "teams": ["blue"], "coords": "189.5, 68, -129.5, 90" }
	],
	"dtm": {
		"monuments": [
			{
				"name": "Red Wool",
				"teams": ["red"],
				"materials": ["wool"],
				"region": {
					"min": "19, 67, -166",
					"max": "17, 71, -168"
				},
				"health": 10
			},
			{
				"name": "Blue Wool",
				"teams": ["blue"],
				"materials": ["wool"],
				"region": {
					"min": "175, 67, -93",
					"max": "177, 71, -91"
				},
				"health": 10
			}
		]
	},
	"killstreaks": [{
		"count": 1,
		"repeat": true,
		"commands": ["give %killername% minecraft:golden_apple 1"]
	                 }
               ],
	"kits": [
		{
			"name": "Default",
			"items": [
				{"type": "item", "material": "iron sword", "slot": 0, "unbreakable": true},
				{"type": "item", "material": "bow", "slot": 1, "unbreakable": true},
				{"type": "item", "material": "stone axe", "slot": 2, "unbreakable": true},
				{"type": "item", "material": "iron pickaxe", "slot": 3, "unbreakable": true},
				{"type": "item", "material": "wood", "slot": 4, "amount": 64},

				{"type": "item", "material": "cooked beef", "slot": 8, "amount": 64},
				{"type": "item", "material": "arrow", "slot": 9, "amount": 64},

				{"type": "item", "material": "leather helmet", "slot": "helmet", "unbreakable": true},
				{"type": "item", "material": "iron chestplate", "slot": "chestplate", "unbreakable": true},
				{"type": "item", "material": "leather leggings", "slot": "leggings", "unbreakable": true},
				{"type": "item", "material": "leather boots", "slot": "boots", "unbreakable": true}
			]
		}
	],
	"itemremove": [
		"leather helmet", "iron chestplate", "leather leggings", "leather boots", "wool"
	],
	"filters": [
		{
			"type": "build", "evaluate": "deny", "teams": ["blue", "red"],
			"regions": ["blue-spawn-protection", "red-spawn-protection"],
			"message": "&cYou are not allowed to modify terrain here."
		},
		{ "type": "enter", "evaluate": "deny", "teams": ["blue"], "regions": ["red-spawn-protection"], "message": "&cYou may not enter the enemy spawn." },
		{ "type": "enter", "evaluate": "deny", "teams": ["red"], "regions": ["blue-spawn-protection"], "message": "&cYou may not enter the enemy spawn." }
	],
	"regions": [
		{ "id": "blue-spawn-protection", "type": "cuboid", "min": "177, 0, -145", "max": "200, oo, -115" },

		{ "id": "red-spawn-protection", "type": "cuboid", "min": "17, 0, -114", "max": "-3, oo, -144" }
	]
}
